Homework 4
…
Task 2: How Often Did Trump Mention His Competitors in the 2016 Presidential Campaign?

Before proceeding to solve the problems, make sure the tidyverse collection and the maps package is installed in your computer.

Note that some of the code blocks in this assignment contain the expression eval = FALSE. This tells R Markdown to display the code contained in the block, but not to evaluate it. Remove it if you want to turn off this behavior.

Task 1: Plotting a choropleth map with ggplot() + geom_map()

The maps library has a variety of map datasets. Here we are going to use the dataset of the states of the United States mainland, named state, to create the reference map. It includes the latitute and longitude coordinates for the boundaries of the states.

library(maps) 
(states <- map_data("state") %>% as_tibble()) # Create a data frame holding the map data

## # A tibble: 15,537 x 6
##     long   lat group order region  subregion
##  * <dbl> <dbl> <dbl> <int> <chr>   <chr>    
##  1 -87.5  30.4     1     1 alabama <NA>     
##  2 -87.5  30.4     1     2 alabama <NA>     
##  3 -87.5  30.4     1     3 alabama <NA>     
##  4 -87.5  30.3     1     4 alabama <NA>     
##  5 -87.6  30.3     1     5 alabama <NA>     
##  6 -87.6  30.3     1     6 alabama <NA>     
##  7 -87.6  30.3     1     7 alabama <NA>     
##  8 -87.6  30.3     1     8 alabama <NA>     
##  9 -87.7  30.3     1     9 alabama <NA>     
## 10 -87.8  30.3     1    10 alabama <NA>     
## # ... with 15,527 more rows
…
