Lab 8: Wrangling and Visualizing Hong Kongâ€™s Weather Data
…
weather_past <- weather[weather$year!='2017',]
weather_2017 <- weather[weather$year=='2017',]

Step 4: use weather_past to construct a summary table named weather_sum containing historical highest and lowest temperatures (variable temp_max and temp_min) as well as the standard error (temp_se = sd(temp)/sqrt(length(temp)-1)) and average (variable temp_avg) of temperatures for each day.

## Edit Here

weather_sum <- weather_past %>% group_by(day_index) %>% summarise(temp_max = max(temp), temp_min = min(temp), temp_se = sd(temp)/sqrt(length(temp)-1), temp_avg = mean(temp)) 

weather_sum

## # A tibble: 366 x 5
##    day_index temp_max temp_min temp_se temp_avg
##        <int>    <dbl>    <dbl>   <dbl>    <dbl>
##  1         1     72.4     50.4   1.00      63.5
##  2         2     70       52.9   0.926     63.7
##  3         3     70.4     51     1.02      63.7
##  4         4     72       52     1.18      63.4
##  5         5     71.6     49.6   1.15      63.2
##  6         6     71       48.6   1.42      62.2
##  7         7     70.2     50.3   1.33      62.1
##  8         8     73.3     53.2   1.22      61.8
##  9         9     72.5     49.6   1.15      61.2
## 10        10     72.4     54.4   1.06      62.3
## # ... with 356 more rows

Step 5: join weather_2017 and weather_sum, and create a variable named emphasis to denote whether a daily temperature is even higher (or lower) than the historical highest (or lowest) temperature on that day. Remove all temperatures that do not breach the historical high or low.

weather_emphasis <- weather_2017 %>% inner_join(weather_sum, by = "day_index" ) %>% 
  group_by(day_index) %>% 
  mutate(emphasis = case_when(temp <= temp_min ~ "low", temp >= temp_max ~ "high")) %>% 
  filter(!is.na(emphasis))

weather_emphasis

## # A tibble: 43 x 10
## # Groups:   day_index [43]
##    month   day  year  temp day_index temp_max temp_min temp_se temp_avg
##    <int> <int> <int> <dbl>     <int>    <dbl>    <dbl>   <dbl>    <dbl>
##  1     1     2  2017  70.2         2     70       52.9   0.926     63.7
##  2     1     3  2017  71           3     70.4     51     1.02      63.7
##  3     1     4  2017  72.2         4     72       52     1.18      63.4
##  4     1     5  2017  72.9         5     71.6     49.6   1.15      63.2
##  5     1     6  2017  72.6         6     71       48.6   1.42      62.2
##  6     1     7  2017  73.2         7     70.2     50.3   1.33      62.1
##  7     1     8  2017  73.5         8     73.3     53.2   1.22      61.8
##  8     1    29  2017  68.9        29     68.2     47     1.21      60.7
##  9     2    25  2017  51.7        56     78.6     52.4   1.47      66.0
## 10     3    13  2017  75.4        72     74.2     50.6   1.56      65.6
## # ... with 33 more rows, and 1 more variable: emphasis <chr>
…
